<?xml version="1.0" encoding="UTF-8" standalone="no"?>
<!-- Created with Inkscape (http://www.inkscape.org/) -->

<svg
   width="215.24001mm"
   height="215.24001mm"
   viewBox="0 0 215.24001 215.24001"
   version="1.1"
   id="svg1"
   xml:space="preserve"
   inkscape:version="1.3 (d021982, 2023-10-23)"
   sodipodi:docname="logo.svg"
   inkscape:export-filename="logo.png"
   inkscape:export-xdpi="96"
   inkscape:export-ydpi="96"
   xmlns:inkscape="http://www.inkscape.org/namespaces/inkscape"
   xmlns:sodipodi="http://sodipodi.sourceforge.net/DTD/sodipodi-0.dtd"
   xmlns="http://www.w3.org/2000/svg"
   xmlns:svg="http://www.w3.org/2000/svg"><sodipodi:namedview
     id="namedview1"
     pagecolor="#ffffff"
     bordercolor="#000000"
     borderopacity="0.25"
     inkscape:showpageshadow="2"
     inkscape:pageopacity="0.0"
     inkscape:pagecheckerboard="0"
     inkscape:deskcolor="#d1d1d1"
     inkscape:document-units="mm"
     inkscape:zoom="0.51386088"
     inkscape:cx="252.98676"
     inkscape:cy="389.2104"
     inkscape:window-width="1920"
     inkscape:window-height="1134"
     inkscape:window-x="0"
     inkscape:window-y="0"
     inkscape:window-maximized="1"
     inkscape:current-layer="g1"
     showgrid="false" /><defs
     id="defs1"><style
       id="style1">.fa-secondary{opacity:.4}</style><style
       id="style1-6">.fa-secondary{opacity:.4}</style><style
       id="style1-67">.fa-secondary{opacity:.4}</style></defs><g
     inkscape:label="Calque 1"
     inkscape:groupmode="layer"
     id="layer1"
     transform="translate(-1.14322, -10.5254)"><path
       sodipodi:type="star"
       style="fill:#8b46f3;fill-opacity:1;stroke-width:0.499999;stroke-linecap:round;stroke-linejoin:bevel"
       id="path1"
       inkscape:flatsided="true"
       sodipodi:sides="6"
       sodipodi:cx="75.959427"
       sodipodi:cy="-75.014824"
       sodipodi:r1="60.193417"
       sodipodi:r2="52.129032"
       sodipodi:arg1="1.0471976"
       sodipodi:arg2="1.5707963"
       inkscape:rounded="0"
       inkscape:randomized="0"
       d="m 106.05613,-22.885795 -60.193414,-2e-6 -30.096706,-52.12903 30.096711,-52.129023 60.193419,0 30.0967,52.129029 z"
       transform="matrix(1.7879045,0,0,1.7879045,-27.044902,252.26474)" /><g
       id="g1"
       transform="matrix(0.24098987,0,0,0.24098987,47.100618,56.560437)"><path
         class="fa-primary"
         d="M 504.1,400.1 425,480.08 c -15.13,15.12 -40.99,4.391 -40.99,-17 V 416 H 320 c -10.06,0 -19.56,-4.75 -25.59,-12.81 L 112,160 H 32 C 14.31,160 0,145.7 0,128 0,110.3 14.31,96 32,96 h 96 c 10.06,0 19.56,4.75 25.59,12.81 L 336,352 h 47.97 v -48.9 c 0,-21.39 25.87,-32.09 40.1,-16.97 l 79.99,79.98 c 10.24,10.29 10.24,25.49 0.04,33.99 z"
         id="path1-5"
         style="fill:#ffffff;fill-opacity:1" /><path
         class="fa-secondary"
         d="M 112,352 H 32 c -17.69,0 -32,14.31 -32,32 0,17.69 14.31,32 32,32 h 96 c 10.06,0 19.56,-4.75 25.59,-12.81 L 224,309.3 184,256 Z M 504.1,111 425,31.02 c -15.13,-15.12 -40.99,-4.391 -40.99,17 V 96 H 320 c -10.06,0 -19.56,4.75 -25.59,12.81 L 224,202.7 263.1,256 336,160 h 47.97 v 48.03 c 0,21.39 25.87,32.09 40.1,16.97 l 79.1,-79.98 C 514.4,135.6 514.3,120.4 504.1,111 Z"
         id="path2"
         style="opacity:1;fill:#4f1ba0;fill-opacity:1" /></g></g></svg>
